<svg width="48" height="68" viewBox="0 0 48 68" fill="none" xmlns="http://www.w3.org/2000/svg">
<path d="M44 5V4C44 1.79086 45.7909 0 48 0V68C45.7909 68 44 66.2091 44 64V63C44 60.2386 41.7614 58 39 58H24C10.7452 58 0 47.2548 0 34C0 20.7452 10.7452 10 24 10H39C41.7614 10 44 7.76142 44 5Z" fill="#1ABC9C"/>
<path d="M33 28V30H15V28H33ZM15 40H33V38H15V40ZM15 35H33V33H15V35Z" fill="#EFF1F4"/>
</svg>
