<svg width="74" height="74" viewBox="0 0 74 74" fill="none" xmlns="http://www.w3.org/2000/svg">
<rect width="74" height="74" rx="10" fill="#FAE6E6"/>
<path d="M37 21C33.8355 21 30.7421 21.9384 28.1109 23.6965C25.4797 25.4546 23.4289 27.9534 22.2179 30.8771C21.0069 33.8007 20.6901 37.0177 21.3074 40.1214C21.9248 43.2251 23.4487 46.0761 25.6863 48.3137C27.9239 50.5513 30.7749 52.0752 33.8786 52.6926C36.9823 53.3099 40.1993 52.9931 43.1229 51.7821C46.0466 50.5711 48.5454 48.5203 50.3035 45.8891C52.0616 43.2579 53 40.1645 53 37C53 32.7565 51.3143 28.6869 48.3137 25.6863C45.3131 22.6857 41.2435 21 37 21ZM44.5 37C44.5 44.58 41.06 51 37 51C32.94 51 29.5 44.58 29.5 37C29.5 29.42 33 23 37 23C41 23 44.5 29.42 44.5 37ZM23 37C23.0014 34.2957 23.7859 31.6497 25.2589 29.3818C26.7318 27.1138 28.83 25.321 31.3 24.22C28.6853 27.9573 27.3521 32.4413 27.5 37C27.3521 41.5587 28.6853 46.0427 31.3 49.78C28.83 48.679 26.7318 46.8862 25.2589 44.6182C23.7859 42.3503 23.0014 39.7043 23 37ZM42.7 49.78C45.3147 46.0427 46.6479 41.5587 46.5 37C46.6479 32.4413 45.3147 27.9573 42.7 24.22C45.167 25.3234 47.2619 27.1172 48.7319 29.385C50.2019 31.6527 50.9841 34.2975 50.9841 37C50.9841 39.7025 50.2019 42.3473 48.7319 44.615C47.2619 46.8828 45.167 48.6766 42.7 49.78Z" fill="#FC573B"/>
<path d="M37 21C33.8355 21 30.7421 21.9384 28.1109 23.6965C25.4797 25.4546 23.4289 27.9534 22.2179 30.8771C21.0069 33.8007 20.6901 37.0177 21.3074 40.1214C21.9248 43.2251 23.4487 46.0761 25.6863 48.3137C27.9239 50.5513 30.7749 52.0752 33.8786 52.6926C36.9823 53.3099 40.1993 52.9931 43.1229 51.7821C46.0466 50.5711 48.5454 48.5203 50.3035 45.8891C52.0616 43.2579 53 40.1645 53 37C53 32.7565 51.3143 28.6869 48.3137 25.6863C45.3131 22.6857 41.2435 21 37 21ZM23 37C23.0014 34.2957 23.7859 31.6497 25.2589 29.3818C26.7318 27.1138 28.83 25.321 31.3 24.22C28.6853 27.9573 27.3521 32.4413 27.5 37C27.3521 41.5587 28.6853 46.0427 31.3 49.78C28.83 48.679 26.7318 46.8862 25.2589 44.6182C23.7859 42.3503 23.0014 39.7043 23 37ZM29.5 37C29.5 30.04 32.38 24.1 36 23.14V50.86C32.38 49.9 29.5 43.96 29.5 37ZM38 50.86V23.14C41.62 24.1 44.5 30.04 44.5 37C44.5 43.96 41.62 49.9 38 50.86ZM42.7 49.78C45.3147 46.0427 46.6479 41.5587 46.5 37C46.6479 32.4413 45.3147 27.9573 42.7 24.22C45.167 25.3234 47.2619 27.1172 48.7319 29.385C50.2019 31.6527 50.9841 34.2975 50.9841 37C50.9841 39.7025 50.2019 42.3473 48.7319 44.615C47.2619 46.8828 45.167 48.6766 42.7 49.78Z" fill="#F5AFAF"/>
<path d="M53 31H21C19.8954 31 19 31.8954 19 33V41C19 42.1046 19.8954 43 21 43H53C54.1046 43 55 42.1046 55 41V33C55 31.8954 54.1046 31 53 31Z" fill="#FC3B3B"/>
<path d="M30.38 34.2V39.8H28.82L26.7 37.26V39.8H24.86V34.2H26.42L28.54 36.74V34.2H30.38Z" fill="white"/>
<path d="M35.94 38.38V39.8H31.3V34.2H35.84V35.62H33.14V36.28H35.52V37.64H33.14V38.38H35.94Z" fill="white"/>
<path d="M45.7 34.2L43.92 39.8H41.92L41 36.8L40.06 39.8H38.06L36.26 34.2H38.26L39.24 37.38L40.28 34.2H42L42.98 37.42L44.02 34.2H45.7Z" fill="white"/>
<path d="M46.86 39.7801C46.484 39.6853 46.1212 39.5443 45.78 39.3601L46.38 37.9801C46.6628 38.1392 46.9655 38.2603 47.28 38.3401C47.5845 38.4338 47.9014 38.481 48.22 38.4801C48.4055 38.5093 48.5945 38.5093 48.78 38.4801C48.8297 38.4612 48.873 38.4287 48.9049 38.3862C48.9367 38.3437 48.9559 38.293 48.96 38.2401C48.96 38.1201 48.96 38.0401 48.74 37.9801L48.02 37.7801C47.6531 37.7159 47.2919 37.6223 46.94 37.5001C46.6455 37.3964 46.3834 37.2171 46.18 36.9801C45.9538 36.7131 45.8392 36.3693 45.86 36.0201C45.8556 35.6763 45.9607 35.3401 46.16 35.0601C46.3832 34.7547 46.6883 34.519 47.04 34.3801C47.4935 34.2093 47.9756 34.1278 48.46 34.1401C48.8432 34.1393 49.2254 34.1796 49.6 34.2601C49.9436 34.3276 50.2744 34.4491 50.58 34.6201L50.02 35.9801C49.535 35.7356 49.0028 35.5992 48.46 35.5801C47.96 35.5801 47.72 35.6801 47.72 35.9201C47.72 36.1601 47.72 36.1201 47.94 36.1801C48.1733 36.2644 48.4145 36.3247 48.66 36.3601C49.0279 36.4196 49.3895 36.5134 49.74 36.6401C50.0308 36.7412 50.292 36.913 50.5 37.1401C50.7262 37.407 50.8408 37.7508 50.82 38.1001C50.8217 38.4434 50.7169 38.7788 50.52 39.0601C50.2969 39.3654 49.9917 39.6011 49.64 39.7401C49.1866 39.9108 48.7044 39.9923 48.22 39.9801C47.7605 39.9657 47.3042 39.8986 46.86 39.7801Z" fill="white"/>
</svg>
